Rhousehunter Vignette • rhousehunter
…
Filtering

The filter() function allows you to filter the cleaned data to find the rentals meeting your specifications. The inputs of this function include: the tibble object generated by data_cleaner(), along with the numeric values for the minimum price, maximum price, minimum square feet, minimum number of bedrooms, and a string of the city name of the desired rentals. It outputs a tibble object with the matching results.

filtered_data <- data_filter(cleaned_data, 
                             min_price = 1000, 
                             max_price = 2000, 
                             sqrt_ft = 500, 
                             num_bedroom_input = 1, 
                             city_input = 'Vancouver')
filtered_data
#> # A tibble: 44 x 5
#>    listing_url                                price num_bedroom area_sqft city  
#>    <chr>                                      <int>       <int>     <int> <chr> 
#>  1 https://vancouver.craigslist.org/van/apa/~  1850           1       500 vanco~
#>  2 https://vancouver.craigslist.org/van/apa/~  1675           1       500 <NA>  
#>  3 https://vancouver.craigslist.org/van/apa/~  1700           3        NA vanco~
#>  4 https://vancouver.craigslist.org/van/apa/~  1575           1       500 <NA>  
#>  5 https://vancouver.craigslist.org/van/apa/~  1550           1       500 <NA>  
#>  6 https://vancouver.craigslist.org/van/apa/~  2000           2       850 vanco~
#>  7 https://vancouver.craigslist.org/bnc/apa/~  1450           1       900 <NA>  
#>  8 https://vancouver.craigslist.org/rds/apa/~  1500           2        NA <NA>  
#>  9 https://vancouver.craigslist.org/van/apa/~  1650           1        NA vanco~
#> 10 https://vancouver.craigslist.org/nvn/apa/~  1750           1       505 vanco~
#> # ... with 34 more rows
…
